\relax 
\providecommand\HyperFirstAtBeginDocument{\AtBeginDocument}
\HyperFirstAtBeginDocument{\ifx\hyper@anchor\@undefined
\global\let\oldcontentsline\contentsline
\gdef\contentsline#1#2#3#4{\oldcontentsline{#1}{#2}{#3}}
\global\let\oldnewlabel\newlabel
\gdef\newlabel#1#2{\newlabelxx{#1}#2}
\gdef\newlabelxx#1#2#3#4#5#6{\oldnewlabel{#1}{{#2}{#3}}}
\AtEndDocument{\ifx\hyper@anchor\@undefined
\let\contentsline\oldcontentsline
\let\newlabel\oldnewlabel
\fi}
\fi}
\global\let\hyper@last\relax 
\gdef\HyperFirstAtBeginDocument#1{#1}
\providecommand\HyField@AuxAddToFields[1]{}
\@newglossary{main}{glg}{gls}{glo}
\@istfilename{CSN10102CW.ist}
\@glsorder{word}
\citation{Stewart2008}
\citation{iso2012iec}
\citation{Stewart2008}
\@writefile{toc}{\contentsline {section}{\numberline {1}Introduction}{1}{section.1}}
\citation{iso2012iec}
\@writefile{toc}{\contentsline {section}{\numberline {2}Research}{2}{section.2}}
\@writefile{toc}{\contentsline {subsection}{\numberline {2.1}Pen Testing Methodology}{2}{subsection.2.1}}
\citation{weissman1995penetration}
\citation{Lyon2009}
\@writefile{toc}{\contentsline {subsection}{\numberline {2.2}Tools}{4}{subsection.2.2}}
\citation{Foster2007}
\citation{METRECorp2014}
\citation{Hauser2013}
\citation{OffensiveSecurityLtd2014}
\citation{Schneier2014}
\citation{Speeds2009}
\citation{bobbytables.com2013}
\@writefile{toc}{\contentsline {subsection}{\numberline {2.3}Possible vulnerabilities}{6}{subsection.2.3}}
\@writefile{toc}{\contentsline {subsection}{\numberline {2.4}Clients Infrastructure Topology}{7}{subsection.2.4}}
\@writefile{lof}{\contentsline {figure}{\numberline {1}{\ignorespaces Currently Known Infrastructure Topology\relax }}{7}{figure.caption.1}}
\providecommand*\caption@xref[2]{\@setref\relax\@undefined{#1}}
\newlabel{VMWareC}{{1}{7}{Currently Known Infrastructure Topology\relax \relax }{figure.caption.1}{}}
\citation{6108094}
\@writefile{toc}{\contentsline {section}{\numberline {3}Investigation Methodology}{8}{section.3}}
\@writefile{lof}{\contentsline {figure}{\numberline {2}{\ignorespaces Currently Known Infrastructure Topology\relax }}{8}{figure.caption.2}}
\newlabel{exploitmeth}{{2}{8}{Currently Known Infrastructure Topology\relax \relax }{figure.caption.2}{}}
\@writefile{lof}{\contentsline {figure}{\numberline {3}{\ignorespaces Currently Known Infrastructure Topology\relax }}{9}{figure.caption.3}}
\newlabel{investimeth}{{3}{9}{Currently Known Infrastructure Topology\relax \relax }{figure.caption.3}{}}
\citation{CVE-1999-0103}
\@writefile{toc}{\contentsline {section}{\numberline {4}Results of Investigation}{10}{section.4}}
\@writefile{toc}{\contentsline {subsection}{\numberline {4.1}Initial Information Gathering}{10}{subsection.4.1}}
\@writefile{toc}{\contentsline {subsection}{\numberline {4.2}Detailed Vulnerability Assessment}{11}{subsection.4.2}}
\@writefile{toc}{\contentsline {subsection}{\numberline {4.3}Exploiting}{12}{subsection.4.3}}
\@writefile{toc}{\contentsline {section}{\numberline {5}Recommendations}{12}{section.5}}
\@writefile{toc}{\contentsline {section}{\numberline {6}Conclusions}{12}{section.6}}
\bibstyle{plainnat}
\bibdata{CSN10102CW}
\bibcite{bobbytables.com2013}{{1}{2013}{{bobby-tables.com}}{{}}}
\bibcite{CVE-1999-0103}{{2}{1996-2008}{{CVE-1999-0103}}{{}}}
\bibcite{Foster2007}{{3}{2007}{{Foster}}{{}}}
\bibcite{Hauser2013}{{4}{2013}{{Hauser}}{{}}}
\bibcite{iso2012iec}{{5}{2012}{{ISO}}{{}}}
\bibcite{Lyon2009}{{6}{2009}{{Lyon}}{{}}}
\bibcite{METRECorp2014}{{7}{2014}{{METRE Corp and U.S. Department of Homeland Security}}{{}}}
\bibcite{OffensiveSecurityLtd2014}{{8}{2014}{{Offensive Security Ltd}}{{}}}
\bibcite{6108094}{{9}{2011}{{Owens and Wang}}{{}}}
\bibcite{Schneier2014}{{10}{2014}{{Schneier}}{{}}}
\bibcite{Speeds2009}{{11}{2009}{{Speeds}}{{}}}
\bibcite{Stewart2008}{{12}{2008}{{Stewart et~al.}}{{Stewart, Tittel, and Chapple}}}
\bibcite{weissman1995penetration}{{13}{1995}{{Weissman}}{{}}}
\@writefile{toc}{\contentsline {section}{Appendices}{15}{section*.5}}
\@writefile{toc}{\contentsline {section}{\numberline {A}Initial Nmap scan of public server.}{15}{Appendix.a.A}}
\newlabel{sec:nmap1}{{A}{15}{Initial Nmap scan of public server}{Appendix.a.A}{}}
