\relax 
\providecommand\HyperFirstAtBeginDocument{\AtBeginDocument}
\HyperFirstAtBeginDocument{\ifx\hyper@anchor\@undefined
\global\let\oldcontentsline\contentsline
\gdef\contentsline#1#2#3#4{\oldcontentsline{#1}{#2}{#3}}
\global\let\oldnewlabel\newlabel
\gdef\newlabel#1#2{\newlabelxx{#1}#2}
\gdef\newlabelxx#1#2#3#4#5#6{\oldnewlabel{#1}{{#2}{#3}}}
\AtEndDocument{\ifx\hyper@anchor\@undefined
\let\contentsline\oldcontentsline
\let\newlabel\oldnewlabel
\fi}
\fi}
\global\let\hyper@last\relax 
\gdef\HyperFirstAtBeginDocument#1{#1}
\providecommand\HyField@AuxAddToFields[1]{}
\@newglossary{main}{glg}{gls}{glo}
\@istfilename{Dissertation.ist}
\@glsorder{word}
\citation{III:2013}
\citation{W3Techs:2014}
\citation{Marthie-Lessing:2008}
\@writefile{toc}{\contentsline {section}{\numberline {1}Introduction}{9}{section.1}}
\@writefile{toc}{\contentsline {subsection}{\numberline {1.1}Defining Terms}{9}{subsection.1.1}}
\citation{Jones:2007}
\citation{CarrierSpafford:2003}
\citation{Carrier:2005}
\citation{Garfinkel:2009}
\@writefile{toc}{\contentsline {subsection}{\numberline {1.2}Background}{11}{subsection.1.2}}
\@writefile{lof}{\contentsline {figure}{\numberline {1}{\ignorespaces The Three Major Phases Of A Digital Crime Scene\relax }}{11}{figure.caption.6}}
\citation{Weil:2011}
\@writefile{toc}{\contentsline {subsection}{\numberline {1.3}Aims \& Objectives}{13}{subsection.1.3}}
\@writefile{toc}{\contentsline {subsection}{\numberline {1.4}Scope of this Investigation}{13}{subsection.1.4}}
\@writefile{toc}{\contentsline {subsection}{\numberline {1.5}Constraints of the Investigation}{14}{subsection.1.5}}
\@writefile{toc}{\contentsline {subsection}{\numberline {1.6}Chapter Outlines}{14}{subsection.1.6}}
\citation{CarrierSpafford:2003}
\citation{Karen-Kent:2006}
\@writefile{toc}{\contentsline {section}{\numberline {2}Forensic and Technical Literature}{16}{section.2}}
\@writefile{toc}{\contentsline {subsection}{\numberline {2.1}Current Forensics Methodology}{16}{subsection.2.1}}
\citation{QPM:2011}
\@writefile{lof}{\contentsline {figure}{\numberline {2}{\ignorespaces NIST Forensic Process\relax }}{17}{figure.caption.7}}
\providecommand*\caption@xref[2]{\@setref\relax\@undefined{#1}}
\newlabel{}{{2}{17}{NIST Forensic Process\relax \relax }{figure.caption.7}{}}
\citation{Martin:2002}
\@writefile{lof}{\contentsline {figure}{\numberline {3}{\ignorespaces Assumes this is a modern Microsoft Windows 7 Operating system disk\relax }}{18}{figure.caption.8}}
\newlabel{fig:windowsUserData}{{3}{18}{Assumes this is a modern Microsoft Windows 7 Operating system disk\relax \relax }{figure.caption.8}{}}
\@writefile{lof}{\contentsline {figure}{\numberline {4}{\ignorespaces Assumes this is a UNIX/Linux disk and using Mozilla FireFox as there browser. Other programs store similar dot files\relax }}{18}{figure.caption.9}}
\newlabel{Assumes this is a UNIX/Linux disk and using Mozilla FireFox as there browser. Other programs store similar dot files}{{4}{18}{Assumes this is a UNIX/Linux disk and using Mozilla FireFox as there browser. Other programs store similar dot files\relax \relax }{figure.caption.9}{}}
\@writefile{toc}{\contentsline {subsection}{\numberline {2.2}Digital Forensics in Traditional Data Storage Pools}{19}{subsection.2.2}}
\@writefile{lof}{\contentsline {figure}{\numberline {5}{\ignorespaces Example Based on the Pool at the School of Engineering \relax }}{20}{figure.caption.10}}
\newlabel{fig:SEEpool}{{5}{20}{Example Based on the Pool at the School of Engineering \relax \relax }{figure.caption.10}{}}
\citation{Buchanan:2013}
\@writefile{toc}{\contentsline {subsubsection}{\numberline {2.2.1}NAS \& SAN}{22}{subsubsection.2.2.1}}
\citation{Brown2010}
\@writefile{lof}{\contentsline {figure}{\numberline {6}{\ignorespaces NAS and SAN Comparason \relax }}{23}{figure.caption.11}}
\newlabel{fig:NASSAN}{{6}{23}{NAS and SAN Comparason \relax \relax }{figure.caption.11}{}}
\citation{Schindelhauer2011}
\@writefile{toc}{\contentsline {subsubsection}{\numberline {2.2.2}NFS \& Samba}{24}{subsubsection.2.2.2}}
\citation{Chase2006}
\citation{Dickerman2007}
\@writefile{lof}{\contentsline {figure}{\numberline {7}{\ignorespaces Underlying Structure of iNode Addressing in NFS \relax }}{25}{figure.caption.12}}
\newlabel{fig:NFS}{{7}{25}{Underlying Structure of iNode Addressing in NFS \relax \relax }{figure.caption.12}{}}
\@writefile{toc}{\contentsline {subsubsection}{\numberline {2.2.3}RAID}{25}{subsubsection.2.2.3}}
\@writefile{lof}{\contentsline {figure}{\numberline {8}{\ignorespaces RAID 5 Allocation Diagram With LeftAsync\relax }}{27}{figure.caption.13}}
\newlabel{fig:raidleft}{{8}{27}{RAID 5 Allocation Diagram With LeftAsync\relax \relax }{figure.caption.13}{}}
\citation{Moulton2009}
\@writefile{lof}{\contentsline {figure}{\numberline {9}{\ignorespaces RAID 5 Allocation Diagram With RightAsync\relax }}{28}{figure.caption.14}}
\newlabel{fig:raidright}{{9}{28}{RAID 5 Allocation Diagram With RightAsync\relax \relax }{figure.caption.14}{}}
\citation{GuidanceSoftware}
\citation{TSK}
\@writefile{toc}{\contentsline {subsection}{\numberline {2.3}Current Digital Forensics Programs}{29}{subsection.2.3}}
\citation{Black2012}
\@writefile{toc}{\contentsline {subsection}{\numberline {2.4}Forensics Challenges of Distributed and Parallel Filings systems}{30}{subsection.2.4}}
\@writefile{toc}{\contentsline {subsubsection}{\numberline {2.4.1}Gluster}{30}{subsubsection.2.4.1}}
\citation{Vos2012}
\citation{Gluster2011}
\citation{Borthakur2008}
\@writefile{toc}{\contentsline {subsubsection}{\numberline {2.4.2}HDFS}{32}{subsubsection.2.4.2}}
\citation{JStewart2012}
\citation{CephAbout}
\citation{Weil2007}
\citation{InktankStorage2014}
\@writefile{toc}{\contentsline {subsection}{\numberline {2.5}Exploring Ceph}{34}{subsection.2.5}}
\citation{Richardson2014}
\@writefile{lof}{\contentsline {figure}{\numberline {10}{\ignorespaces Example Architecture of Ceph Cluster\relax }}{36}{figure.caption.15}}
\newlabel{fig:cepharch}{{10}{36}{Example Architecture of Ceph Cluster\relax \relax }{figure.caption.15}{}}
\@writefile{lof}{\contentsline {figure}{\numberline {11}{\ignorespaces Partition Table of Ceph OSD \relax }}{37}{figure.caption.16}}
\citation{InktankStorage2014A}
\citation{InktankStorage2014A}
\@writefile{lof}{\contentsline {figure}{\numberline {12}{\ignorespaces Object, PG and OSD relationship\relax }}{39}{figure.caption.17}}
\newlabel{fig:pg}{{12}{39}{Object, PG and OSD relationship\relax \relax }{figure.caption.17}{}}
\citation{SiliconGraphicsInc.2006}
\@writefile{toc}{\contentsline {subsection}{\numberline {2.6}Exploring XFS}{40}{subsection.2.6}}
\@writefile{lof}{\contentsline {figure}{\numberline {13}{\ignorespaces XFS Allocation Group First Block Layout\relax }}{41}{figure.caption.18}}
\newlabel{XFS-SB-Layout}{{13}{41}{XFS Allocation Group First Block Layout\relax \relax }{figure.caption.18}{}}
\@writefile{lof}{\contentsline {figure}{\numberline {14}{\ignorespaces XFS Allocation Group Remaining Layout\relax }}{41}{figure.caption.19}}
\newlabel{XFS-AG-Layout-Ex}{{14}{41}{XFS Allocation Group Remaining Layout\relax \relax }{figure.caption.19}{}}
\@writefile{lof}{\contentsline {figure}{\numberline {15}{\ignorespaces XFS iNode C Struct\relax }}{43}{figure.caption.20}}
\newlabel{fig:inode}{{15}{43}{XFS iNode C Struct\relax \relax }{figure.caption.20}{}}
\@writefile{lof}{\contentsline {figure}{\numberline {16}{\ignorespaces Displaying xfs\_db parsing iNode 16\relax }}{45}{figure.caption.21}}
\newlabel{fig:inode16}{{16}{45}{Displaying xfs\_db parsing iNode 16\relax \relax }{figure.caption.21}{}}
\@writefile{lof}{\contentsline {figure}{\numberline {17}{\ignorespaces XFS Block Directory Structre \relax }}{46}{figure.caption.22}}
\newlabel{fig:block}{{17}{46}{XFS Block Directory Structre \relax \relax }{figure.caption.22}{}}
\@writefile{toc}{\contentsline {subsection}{\numberline {2.7}Literature Conclusion}{47}{subsection.2.7}}
\citation{Community2012}
\@writefile{toc}{\contentsline {section}{\numberline {3}Preparations and Design}{48}{section.3}}
\@writefile{toc}{\contentsline {subsection}{\numberline {3.1}Building a Ceph cluster with KVM/Libvert}{48}{subsection.3.1}}
\@writefile{lof}{\contentsline {figure}{\numberline {18}{\ignorespaces Ceph Cluster Design Used in This Invesigation\relax }}{49}{figure.caption.23}}
\@writefile{lof}{\contentsline {figure}{\numberline {19}{\ignorespaces Ceph Cluster 'ceph status' output\relax }}{50}{figure.caption.24}}
\newlabel{fig:stat}{{19}{50}{Ceph Cluster 'ceph status' output\relax \relax }{figure.caption.24}{}}
\citation{Hart1971-2014}
\citation{Adams2012}
\@writefile{toc}{\contentsline {section}{\numberline {4}Evaluation Framework}{52}{section.4}}
\@writefile{toc}{\contentsline {section}{\numberline {5}Implementing Forensics on Ceph}{54}{section.5}}
\@writefile{lof}{\contentsline {figure}{\numberline {20}{\ignorespaces Initial Process for Ceph Forensics\relax }}{55}{figure.caption.25}}
\newlabel{fig:cephmeth}{{20}{55}{Initial Process for Ceph Forensics\relax \relax }{figure.caption.25}{}}
\@writefile{toc}{\contentsline {subsection}{\numberline {5.1}XFS Forensics}{56}{subsection.5.1}}
\@writefile{lof}{\contentsline {figure}{\numberline {21}{\ignorespaces XFS RBD Image Extraction and Valid Parsing of Superblock \relax }}{57}{figure.caption.26}}
\@writefile{lof}{\contentsline {figure}{\numberline {22}{\ignorespaces XFS iNode Parsing\relax }}{58}{figure.caption.27}}
\newlabel{core}{{22}{58}{XFS iNode Parsing\relax \relax }{figure.caption.27}{}}
\@writefile{lof}{\contentsline {figure}{\numberline {23}{\ignorespaces XFS Shortform Directory Example \relax }}{59}{figure.caption.28}}
\@writefile{lof}{\contentsline {figure}{\numberline {24}{\ignorespaces XFS File Extent \relax }}{60}{figure.caption.29}}
\@writefile{lof}{\contentsline {figure}{\numberline {25}{\ignorespaces XFS Block/Leaf Example\relax }}{61}{figure.caption.30}}
\@writefile{lof}{\contentsline {figure}{\numberline {26}{\ignorespaces End of XFS Block/Leaf Example \relax }}{61}{figure.caption.31}}
\@writefile{lof}{\contentsline {figure}{\numberline {27}{\ignorespaces XFS File Extraction \& Hashsum \relax }}{62}{figure.caption.32}}
\newlabel{foren}{{27}{62}{XFS File Extraction \& Hashsum \relax \relax }{figure.caption.32}{}}
\@writefile{lof}{\contentsline {figure}{\numberline {28}{\ignorespaces Extracted XFS File With Trailing Zeros \relax }}{63}{figure.caption.33}}
\newlabel{emacs}{{28}{63}{Extracted XFS File With Trailing Zeros \relax \relax }{figure.caption.33}{}}
\@writefile{toc}{\contentsline {subsubsection}{\numberline {5.1.1}Performing forensics on an OSD}{64}{subsubsection.5.1.1}}
\@writefile{lof}{\contentsline {figure}{\numberline {29}{\ignorespaces OSD Directory Tree\relax }}{65}{figure.caption.34}}
\newlabel{tree}{{29}{65}{OSD Directory Tree\relax \relax }{figure.caption.34}{}}
\@writefile{toc}{\contentsline {subsection}{\numberline {5.2}Ceph Forensics}{66}{subsection.5.2}}
\@writefile{toc}{\contentsline {subsubsection}{\numberline {5.2.1}RADOS \& RBD Infrastructure}{67}{subsubsection.5.2.1}}
\@writefile{lof}{\contentsline {figure}{\numberline {30}{\ignorespaces Output from ceph-rbd.py\relax }}{68}{figure.caption.35}}
\newlabel{pool}{{30}{68}{Output from ceph-rbd.py\relax \relax }{figure.caption.35}{}}
\@writefile{lof}{\contentsline {figure}{\numberline {31}{\ignorespaces Output from ceph-rb-copy.py\relax }}{69}{figure.caption.36}}
\@writefile{lof}{\contentsline {figure}{\numberline {32}{\ignorespaces Output from ceph-rados.py\relax }}{70}{figure.caption.37}}
\newlabel{rados}{{32}{70}{Output from ceph-rados.py\relax \relax }{figure.caption.37}{}}
\@writefile{toc}{\contentsline {subsubsection}{\numberline {5.2.2}Cluster Maps}{71}{subsubsection.5.2.2}}
\@writefile{lof}{\contentsline {figure}{\numberline {33}{\ignorespaces MON Map as Formatted JSON\relax }}{71}{figure.caption.38}}
\@writefile{lof}{\contentsline {figure}{\numberline {34}{\ignorespaces First Half OSD Map as Formatted JSON\relax }}{73}{figure.caption.39}}
\newlabel{map2}{{34}{73}{First Half OSD Map as Formatted JSON\relax \relax }{figure.caption.39}{}}
\@writefile{lof}{\contentsline {figure}{\numberline {35}{\ignorespaces Second Half of OSD Map as Formatted JSON\relax }}{74}{figure.caption.40}}
\newlabel{map1}{{35}{74}{Second Half of OSD Map as Formatted JSON\relax \relax }{figure.caption.40}{}}
\@writefile{lof}{\contentsline {figure}{\numberline {36}{\ignorespaces Finding Objects With osdmaptool\relax }}{75}{figure.caption.41}}
\@writefile{lof}{\contentsline {figure}{\numberline {37}{\ignorespaces Example of Object Found From osdmaptool\relax }}{75}{figure.caption.42}}
\@writefile{toc}{\contentsline {subsubsection}{\numberline {5.2.3}Finalising Ceph Forensics}{76}{subsubsection.5.2.3}}
\@writefile{lof}{\contentsline {figure}{\numberline {38}{\ignorespaces Replication Of Objects In A Ceph Cluster\relax }}{76}{figure.caption.43}}
\newlabel{rep}{{38}{76}{Replication Of Objects In A Ceph Cluster\relax \relax }{figure.caption.43}{}}
\@writefile{toc}{\contentsline {section}{\numberline {6}Findings of Evaluation \& Discussion of Results}{77}{section.6}}
\@writefile{lof}{\contentsline {figure}{\numberline {39}{\ignorespaces Dead Forensics Process for Workstations\relax }}{80}{figure.caption.44}}
\newlabel{old}{{39}{80}{Dead Forensics Process for Workstations\relax \relax }{figure.caption.44}{}}
\@writefile{toc}{\contentsline {section}{\numberline {7}Conclusions}{82}{section.7}}
\@writefile{toc}{\contentsline {section}{\numberline {8}Recommendations}{84}{section.8}}
\bibstyle{ieeetr}
\bibdata{Dissertation}
\bibcite{III:2013}{1}
\bibcite{W3Techs:2014}{2}
\bibcite{Marthie-Lessing:2008}{3}
\bibcite{Jones:2007}{4}
\bibcite{CarrierSpafford:2003}{5}
\bibcite{Carrier:2005}{6}
\bibcite{Garfinkel:2009}{7}
\bibcite{Weil:2011}{8}
\bibcite{Karen-Kent:2006}{9}
\bibcite{QPM:2011}{10}
\bibcite{Martin:2002}{11}
\bibcite{Buchanan:2013}{12}
\bibcite{Brown2010}{13}
\bibcite{Schindelhauer2011}{14}
\bibcite{Chase2006}{15}
\bibcite{Dickerman2007}{16}
\bibcite{Moulton2009}{17}
\bibcite{GuidanceSoftware}{18}
\bibcite{TSK}{19}
\bibcite{Black2012}{20}
\bibcite{Vos2012}{21}
\bibcite{Gluster2011}{22}
\bibcite{Borthakur2008}{23}
\bibcite{JStewart2012}{24}
\bibcite{CephAbout}{25}
\bibcite{Weil2007}{26}
\bibcite{InktankStorage2014}{27}
\bibcite{Richardson2014}{28}
\bibcite{InktankStorage2014A}{29}
\bibcite{SiliconGraphicsInc.2006}{30}
\bibcite{Community2012}{31}
\bibcite{Hart1971-2014}{32}
\bibcite{Adams2012}{33}
\@writefile{toc}{\contentsline {section}{Appendices}{88}{section*.46}}
\@writefile{toc}{\contentsline {section}{\numberline {A}Initial Project Overview}{88}{Appendix.a.A}}
\@writefile{toc}{\contentsline {section}{\numberline {B}Second Formal Review Output}{92}{Appendix.a.B}}
\@writefile{toc}{\contentsline {section}{\numberline {C}Diary Sheets (or other project management evidence)}{95}{Appendix.a.C}}
\@writefile{toc}{\contentsline {section}{\numberline {D}Appendix 4}{118}{Appendix.a.D}}
\@writefile{lof}{\contentsline {figure}{\numberline {40}{\ignorespaces PG stat Part 1 as Formatted JSON\relax }}{118}{figure.caption.48}}
\@writefile{lof}{\contentsline {figure}{\numberline {41}{\ignorespaces PG stat Part 2 as Formatted JSON\relax }}{119}{figure.caption.49}}
